{"uuid":"189daef1-1995-42ce-9111-8db5f2674b2f","name":"Validates page number on request success","historyId":"a98b57dd760ff3185ce5800c0930b6b3:d41d8cd98f00b204e9800998ecf8427e","status":"passed","statusDetails":{},"stage":"finished","steps":[{"status":"passed","statusDetails":{},"stage":"finished","steps":[],"attachments":[],"parameters":[{"name":"Request","value":"{\"Request Body\":null,\"Request Headers\":{\"Connection\":\"keep-alive\",\"user-agent\":\"Mozilla/5.0 (Windows NT 10.0; Win64; x64) AppleW..."},{"name":"Yielded","value":"{\"status\":200,\"duration\":19,\"body\":{\"page\":2,\"per_page\":6,\"total\":12,\"total_pages\":2,\"data\":[null,null,null,null,null,null],\"sup..."}],"start":1740850249313,"name":"request GET --- https://reqres.in/api/users?page=2","stop":1740850249336},{"status":"passed","statusDetails":{},"stage":"finished","steps":[],"attachments":[],"parameters":[{"name":"actual","value":"2"},{"name":"expected","value":"2"}],"start":1740850249337,"name":"assert expected 2 to equal 2","stop":1740850249330}],"attachments":[],"parameters":[],"labels":[{"name":"language","value":"javascript"},{"name":"framework","value":"cypress"},{"name":"parentSuite","value":"List Users"},{"name":"host","value":"DESKTOP-K3V0BAT"},{"name":"thread","value":"pid-17428-worker-main"},{"name":"package","value":"cypress.e2e.test.GET.getUsersPage.cy.js"}],"links":[],"start":1740850249294,"fullName":"cypress/e2e/test/GET/getUsersPage.cy.js#List Users Validates page number on request success","testCaseId":"a98b57dd760ff3185ce5800c0930b6b3","stop":1740850249330}