{"uuid":"30427850-1205-4470-9c15-a95b0324c2cb","name":"Validates status code on request failure","historyId":"3018b115a0de8df0b3f059c4a43defbf:d41d8cd98f00b204e9800998ecf8427e","status":"failed","statusDetails":{"message":"expected 200 to equal 400","trace":"AssertionError: expected 200 to equal 400\n    at captureUserInvocationStack (http://localhost:59280/__cypress/runner/cypress_runner.js:138885:94)\n    at Proxy.<anonymous> (http://localhost:59280/__cypress/runner/cypress_runner.js:138913:9)\n    at Proxy.assertEqual (http://localhost:59280/__cypress/runner/cypress_runner.js:79842:12)\n    at Proxy.methodWrapper (http://localhost:59280/__cypress/runner/cypress_runner.js:77688:25)\n    at Context.eval (webpack:///./cypress/e2e/test/GET/getUser.cy.js:16:28)\n    at getRet (http://localhost:59280/__cypress/runner/cypress_runner.js:118338:20)\n    at tryCatcher (http://localhost:59280/__cypress/runner/cypress_runner.js:1777:23)\n    at Promise.attempt.Promise.try (http://localhost:59280/__cypress/runner/cypress_runner.js:4285:29)\n    at Context.thenFn (http://localhost:59280/__cypress/runner/cypress_runner.js:118349:66)\n    at Context.then (http://localhost:59280/__cypress/runner/cypress_runner.js:118600:21)","actual":"200","expected":"400"},"stage":"finished","steps":[{"status":"passed","statusDetails":{},"stage":"finished","steps":[],"attachments":[],"parameters":[{"name":"Request","value":"{\"Request Body\":null,\"Request Headers\":{\"Connection\":\"keep-alive\",\"user-agent\":\"Mozilla/5.0 (Windows NT 10.0; Win64; x64) AppleW..."},{"name":"Yielded","value":"{\"status\":200,\"duration\":17,\"body\":{\"page\":1,\"per_page\":6,\"total\":12,\"total_pages\":2,\"data\":[null,null,null,null,null,null],\"sup..."}],"start":1740850246327,"name":"request GET --- https://reqres.in/api/users/","stop":1740850246347},{"status":"failed","statusDetails":{"message":"expected 200 to equal 400","trace":"AssertionError: expected 200 to equal 400\n    at captureUserInvocationStack (http://localhost:59280/__cypress/runner/cypress_runner.js:138885:94)\n    at Proxy.<anonymous> (http://localhost:59280/__cypress/runner/cypress_runner.js:138913:9)\n    at Proxy.assertEqual (http://localhost:59280/__cypress/runner/cypress_runner.js:79842:12)\n    at Proxy.methodWrapper (http://localhost:59280/__cypress/runner/cypress_runner.js:77688:25)\n    at Context.eval (webpack:///./cypress/e2e/test/GET/getUser.cy.js:16:28)\n    at getRet (http://localhost:59280/__cypress/runner/cypress_runner.js:118338:20)\n    at tryCatcher (http://localhost:59280/__cypress/runner/cypress_runner.js:1777:23)\n    at Promise.attempt.Promise.try (http://localhost:59280/__cypress/runner/cypress_runner.js:4285:29)\n    at Context.thenFn (http://localhost:59280/__cypress/runner/cypress_runner.js:118349:66)\n    at Context.then (http://localhost:59280/__cypress/runner/cypress_runner.js:118600:21)","actual":"200","expected":"400"},"stage":"finished","steps":[],"attachments":[],"parameters":[{"name":"actual","value":"200"},{"name":"expected","value":"400"}],"start":1740850246350,"name":"assert expected 200 to equal 400","stop":1740850246350}],"attachments":[{"name":"List One User -- Validates status code on request failure (failed).png","source":"b7a47186-7120-4c82-8ac1-a53915d8e1bd-attachment.png","type":"image/png"}],"parameters":[],"labels":[{"name":"language","value":"javascript"},{"name":"framework","value":"cypress"},{"name":"parentSuite","value":"List One User"},{"name":"host","value":"DESKTOP-K3V0BAT"},{"name":"thread","value":"pid-17428-worker-main"},{"name":"package","value":"cypress.e2e.test.GET.getUser.cy.js"}],"links":[],"start":1740850246306,"fullName":"cypress/e2e/test/GET/getUser.cy.js#List One User Validates status code on request failure","testCaseId":"3018b115a0de8df0b3f059c4a43defbf","stop":1740850246516}