{"uuid":"4a34dfba-4a71-4ff7-b4d9-e98f05464dc1","name":"Validates response structure on request success","historyId":"6401b0ddd17c2f739875aedb82ec5289:d41d8cd98f00b204e9800998ecf8427e","status":"passed","statusDetails":{},"stage":"finished","steps":[{"status":"passed","statusDetails":{},"stage":"finished","steps":[],"attachments":[],"parameters":[{"name":"Request","value":"{\"Request Body\":null,\"Request Headers\":{\"Connection\":\"keep-alive\",\"user-agent\":\"Mozilla/5.0 (Windows NT 10.0; Win64; x64) AppleW..."},{"name":"Yielded","value":"{\"status\":200,\"duration\":20,\"body\":{\"page\":2,\"per_page\":6,\"total\":12,\"total_pages\":2,\"data\":[null,null,null,null,null,null],\"sup..."}],"start":1740850249378,"name":"request GET --- https://reqres.in/api/users?page=2","stop":1740850249402},{"status":"passed","statusDetails":{},"stage":"finished","steps":[],"attachments":[],"parameters":[{"name":"actual","value":"200"},{"name":"expected","value":"200"}],"start":1740850249403,"name":"assert expected 200 to equal 200","stop":1740850249403},{"status":"passed","statusDetails":{},"stage":"finished","steps":[],"attachments":[],"parameters":[{"name":"actual","value":"true"},{"name":"expected","value":"true"}],"start":1740850249435,"name":"assert Contrato da API inválido!: expected true to be true","stop":1740850249433}],"attachments":[],"parameters":[],"labels":[{"name":"language","value":"javascript"},{"name":"framework","value":"cypress"},{"name":"parentSuite","value":"List Users"},{"name":"host","value":"DESKTOP-K3V0BAT"},{"name":"thread","value":"pid-17428-worker-main"},{"name":"package","value":"cypress.e2e.test.GET.getUsersPage.cy.js"}],"links":[],"start":1740850249359,"fullName":"cypress/e2e/test/GET/getUsersPage.cy.js#List Users Validates response structure on request success","testCaseId":"6401b0ddd17c2f739875aedb82ec5289","stop":1740850249433}