{"uuid":"dc3d155f-50e7-4d8b-85ae-a5852fdb9a4e","name":"Validates status code on request success","historyId":"e6a8d0333e073b2e979c9d4a9bbcb6e0:d41d8cd98f00b204e9800998ecf8427e","status":"passed","statusDetails":{},"stage":"finished","steps":[{"status":"passed","statusDetails":{},"stage":"finished","steps":[],"attachments":[],"parameters":[{"name":"Request","value":"{\"Request Body\":null,\"Request Headers\":{\"Connection\":\"keep-alive\",\"user-agent\":\"Mozilla/5.0 (Windows NT 10.0; Win64; x64) AppleW..."},{"name":"Yielded","value":"{\"status\":200,\"duration\":21,\"body\":{\"page\":2,\"per_page\":6,\"total\":12,\"total_pages\":2,\"data\":[null,null,null,null,null,null],\"sup..."}],"start":1740850249226,"name":"request GET --- https://reqres.in/api/users?page=2","stop":1740850249252},{"status":"passed","statusDetails":{},"stage":"finished","steps":[],"attachments":[],"parameters":[{"name":"actual","value":"200"},{"name":"expected","value":"200"}],"start":1740850249256,"name":"assert expected 200 to equal 200","stop":1740850249256}],"attachments":[],"parameters":[],"labels":[{"name":"language","value":"javascript"},{"name":"framework","value":"cypress"},{"name":"parentSuite","value":"List Users"},{"name":"host","value":"DESKTOP-K3V0BAT"},{"name":"thread","value":"pid-17428-worker-main"},{"name":"package","value":"cypress.e2e.test.GET.getUsersPage.cy.js"}],"links":[],"start":1740850249202,"fullName":"cypress/e2e/test/GET/getUsersPage.cy.js#List Users Validates status code on request success","testCaseId":"e6a8d0333e073b2e979c9d4a9bbcb6e0","stop":1740850249256}