{"uuid":"ddab8f17-4848-4fd4-aa54-296f9111284a","name":"Validates response status code on trying to delete user without id","historyId":"3d7dcb62d436b44a2856fb521d5019db:d41d8cd98f00b204e9800998ecf8427e","status":"failed","statusDetails":{"message":"expected 200 to equal 204","trace":"AssertionError: expected 200 to equal 204\n    at captureUserInvocationStack (http://localhost:59280/__cypress/runner/cypress_runner.js:138885:94)\n    at Proxy.<anonymous> (http://localhost:59280/__cypress/runner/cypress_runner.js:138913:9)\n    at Proxy.assertEqual (http://localhost:59280/__cypress/runner/cypress_runner.js:79842:12)\n    at Proxy.methodWrapper (http://localhost:59280/__cypress/runner/cypress_runner.js:77688:25)\n    at Context.eval (webpack:///./cypress/e2e/test/DELETE/deleteUser.cy.js:15:28)\n    at getRet (http://localhost:59280/__cypress/runner/cypress_runner.js:118338:20)\n    at tryCatcher (http://localhost:59280/__cypress/runner/cypress_runner.js:1777:23)\n    at Promise.attempt.Promise.try (http://localhost:59280/__cypress/runner/cypress_runner.js:4285:29)\n    at Context.thenFn (http://localhost:59280/__cypress/runner/cypress_runner.js:118349:66)\n    at Context.then (http://localhost:59280/__cypress/runner/cypress_runner.js:118600:21)","actual":"200","expected":"204"},"stage":"finished","steps":[{"status":"passed","statusDetails":{},"stage":"finished","steps":[],"attachments":[],"parameters":[{"name":"Request","value":"{\"Request Body\":null,\"Request Headers\":{\"Connection\":\"keep-alive\",\"user-agent\":\"Mozilla/5.0 (Windows NT 10.0; Win64; x64) AppleW..."},{"name":"Yielded","value":"{\"status\":200,\"duration\":23,\"body\":{\"page\":1,\"per_page\":6,\"total\":12,\"total_pages\":2,\"data\":[null,null,null,null,null,null],\"sup..."}],"start":1740850244514,"name":"request GET --- https://reqres.in/api/users","stop":1740850244541},{"status":"failed","statusDetails":{"message":"expected 200 to equal 204","trace":"AssertionError: expected 200 to equal 204\n    at captureUserInvocationStack (http://localhost:59280/__cypress/runner/cypress_runner.js:138885:94)\n    at Proxy.<anonymous> (http://localhost:59280/__cypress/runner/cypress_runner.js:138913:9)\n    at Proxy.assertEqual (http://localhost:59280/__cypress/runner/cypress_runner.js:79842:12)\n    at Proxy.methodWrapper (http://localhost:59280/__cypress/runner/cypress_runner.js:77688:25)\n    at Context.eval (webpack:///./cypress/e2e/test/DELETE/deleteUser.cy.js:15:28)\n    at getRet (http://localhost:59280/__cypress/runner/cypress_runner.js:118338:20)\n    at tryCatcher (http://localhost:59280/__cypress/runner/cypress_runner.js:1777:23)\n    at Promise.attempt.Promise.try (http://localhost:59280/__cypress/runner/cypress_runner.js:4285:29)\n    at Context.thenFn (http://localhost:59280/__cypress/runner/cypress_runner.js:118349:66)\n    at Context.then (http://localhost:59280/__cypress/runner/cypress_runner.js:118600:21)","actual":"200","expected":"204"},"stage":"finished","steps":[],"attachments":[],"parameters":[{"name":"actual","value":"200"},{"name":"expected","value":"204"}],"start":1740850244543,"name":"assert expected 200 to equal 204","stop":1740850244543}],"attachments":[{"name":"Deletes a User -- Validates response status code on trying to delete user without id (failed).png","source":"aee6172f-27b0-4590-81d6-eeb3cca15a6e-attachment.png","type":"image/png"}],"parameters":[],"labels":[{"name":"language","value":"javascript"},{"name":"framework","value":"cypress"},{"name":"parentSuite","value":"Deletes a User"},{"name":"host","value":"DESKTOP-K3V0BAT"},{"name":"thread","value":"pid-17428-worker-main"},{"name":"package","value":"cypress.e2e.test.DELETE.deleteUser.cy.js"}],"links":[],"start":1740850244500,"fullName":"cypress/e2e/test/DELETE/deleteUser.cy.js#Deletes a User Validates response status code on trying to delete user without id","testCaseId":"3d7dcb62d436b44a2856fb521d5019db","stop":1740850244763}