{"uid":"4bee7d547f1735c5","name":"Validates status code on request failure","fullName":"cypress/e2e/test/GET/getUser.cy.js#List One User Validates status code on request failure","historyId":"3018b115a0de8df0b3f059c4a43defbf:d41d8cd98f00b204e9800998ecf8427e","time":{"start":1740850246306,"stop":1740850246516,"duration":210},"status":"failed","statusMessage":"expected 200 to equal 400","statusTrace":"AssertionError: expected 200 to equal 400\n    at captureUserInvocationStack (http://localhost:59280/__cypress/runner/cypress_runner.js:138885:94)\n    at Proxy.<anonymous> (http://localhost:59280/__cypress/runner/cypress_runner.js:138913:9)\n    at Proxy.assertEqual (http://localhost:59280/__cypress/runner/cypress_runner.js:79842:12)\n    at Proxy.methodWrapper (http://localhost:59280/__cypress/runner/cypress_runner.js:77688:25)\n    at Context.eval (webpack:///./cypress/e2e/test/GET/getUser.cy.js:16:28)\n    at getRet (http://localhost:59280/__cypress/runner/cypress_runner.js:118338:20)\n    at tryCatcher (http://localhost:59280/__cypress/runner/cypress_runner.js:1777:23)\n    at Promise.attempt.Promise.try (http://localhost:59280/__cypress/runner/cypress_runner.js:4285:29)\n    at Context.thenFn (http://localhost:59280/__cypress/runner/cypress_runner.js:118349:66)\n    at Context.then (http://localhost:59280/__cypress/runner/cypress_runner.js:118600:21)","flaky":false,"newFailed":false,"newBroken":false,"newPassed":false,"retriesCount":0,"retriesStatusChange":false,"beforeStages":[],"testStage":{"status":"failed","statusMessage":"expected 200 to equal 400","statusTrace":"AssertionError: expected 200 to equal 400\n    at captureUserInvocationStack (http://localhost:59280/__cypress/runner/cypress_runner.js:138885:94)\n    at Proxy.<anonymous> (http://localhost:59280/__cypress/runner/cypress_runner.js:138913:9)\n    at Proxy.assertEqual (http://localhost:59280/__cypress/runner/cypress_runner.js:79842:12)\n    at Proxy.methodWrapper (http://localhost:59280/__cypress/runner/cypress_runner.js:77688:25)\n    at Context.eval (webpack:///./cypress/e2e/test/GET/getUser.cy.js:16:28)\n    at getRet (http://localhost:59280/__cypress/runner/cypress_runner.js:118338:20)\n    at tryCatcher (http://localhost:59280/__cypress/runner/cypress_runner.js:1777:23)\n    at Promise.attempt.Promise.try (http://localhost:59280/__cypress/runner/cypress_runner.js:4285:29)\n    at Context.thenFn (http://localhost:59280/__cypress/runner/cypress_runner.js:118349:66)\n    at Context.then (http://localhost:59280/__cypress/runner/cypress_runner.js:118600:21)","steps":[{"name":"request GET --- https://reqres.in/api/users/","time":{"start":1740850246327,"stop":1740850246347,"duration":20},"status":"passed","steps":[],"attachments":[],"parameters":[{"name":"Request","value":"{\"Request Body\":null,\"Request Headers\":{\"Connection\":\"keep-alive\",\"user-agent\":\"Mozilla/5.0 (Windows NT 10.0; Win64; x64) AppleW..."},{"name":"Yielded","value":"{\"status\":200,\"duration\":17,\"body\":{\"page\":1,\"per_page\":6,\"total\":12,\"total_pages\":2,\"data\":[null,null,null,null,null,null],\"sup..."}],"shouldDisplayMessage":false,"attachmentsCount":0,"hasContent":true,"attachmentStep":false,"stepsCount":0},{"name":"assert expected 200 to equal 400","time":{"start":1740850246350,"stop":1740850246350,"duration":0},"status":"failed","statusMessage":"expected 200 to equal 400","statusTrace":"AssertionError: expected 200 to equal 400\n    at captureUserInvocationStack (http://localhost:59280/__cypress/runner/cypress_runner.js:138885:94)\n    at Proxy.<anonymous> (http://localhost:59280/__cypress/runner/cypress_runner.js:138913:9)\n    at Proxy.assertEqual (http://localhost:59280/__cypress/runner/cypress_runner.js:79842:12)\n    at Proxy.methodWrapper (http://localhost:59280/__cypress/runner/cypress_runner.js:77688:25)\n    at Context.eval (webpack:///./cypress/e2e/test/GET/getUser.cy.js:16:28)\n    at getRet (http://localhost:59280/__cypress/runner/cypress_runner.js:118338:20)\n    at tryCatcher (http://localhost:59280/__cypress/runner/cypress_runner.js:1777:23)\n    at Promise.attempt.Promise.try (http://localhost:59280/__cypress/runner/cypress_runner.js:4285:29)\n    at Context.thenFn (http://localhost:59280/__cypress/runner/cypress_runner.js:118349:66)\n    at Context.then (http://localhost:59280/__cypress/runner/cypress_runner.js:118600:21)","steps":[],"attachments":[],"parameters":[{"name":"actual","value":"200"},{"name":"expected","value":"400"}],"shouldDisplayMessage":true,"attachmentsCount":0,"hasContent":true,"attachmentStep":false,"stepsCount":0}],"attachments":[{"uid":"24f93d3857c6a37a","name":"List One User -- Validates status code on request failure (failed).png","source":"24f93d3857c6a37a.png","type":"image/png","size":39625}],"parameters":[],"shouldDisplayMessage":false,"attachmentsCount":1,"hasContent":true,"attachmentStep":false,"stepsCount":2},"afterStages":[],"labels":[{"name":"language","value":"javascript"},{"name":"framework","value":"cypress"},{"name":"parentSuite","value":"List One User"},{"name":"host","value":"DESKTOP-K3V0BAT"},{"name":"thread","value":"pid-17428-worker-main"},{"name":"package","value":"cypress.e2e.test.GET.getUser.cy.js"},{"name":"resultFormat","value":"allure2"}],"parameters":[],"links":[],"hidden":false,"retry":false,"extra":{"severity":"normal","retries":[],"categories":[{"name":"Product defects","matchedStatuses":[],"flaky":false}],"tags":[]},"source":"4bee7d547f1735c5.json","parameterValues":[]}