{"uid":"4db03b802ac034b0","name":"Validates response status code on trying to delete user without id","fullName":"cypress/e2e/test/DELETE/deleteUser.cy.js#Deletes a User Validates response status code on trying to delete user without id","historyId":"3d7dcb62d436b44a2856fb521d5019db:d41d8cd98f00b204e9800998ecf8427e","time":{"start":1740850244500,"stop":1740850244763,"duration":263},"status":"failed","statusMessage":"expected 200 to equal 204","statusTrace":"AssertionError: expected 200 to equal 204\n    at captureUserInvocationStack (http://localhost:59280/__cypress/runner/cypress_runner.js:138885:94)\n    at Proxy.<anonymous> (http://localhost:59280/__cypress/runner/cypress_runner.js:138913:9)\n    at Proxy.assertEqual (http://localhost:59280/__cypress/runner/cypress_runner.js:79842:12)\n    at Proxy.methodWrapper (http://localhost:59280/__cypress/runner/cypress_runner.js:77688:25)\n    at Context.eval (webpack:///./cypress/e2e/test/DELETE/deleteUser.cy.js:15:28)\n    at getRet (http://localhost:59280/__cypress/runner/cypress_runner.js:118338:20)\n    at tryCatcher (http://localhost:59280/__cypress/runner/cypress_runner.js:1777:23)\n    at Promise.attempt.Promise.try (http://localhost:59280/__cypress/runner/cypress_runner.js:4285:29)\n    at Context.thenFn (http://localhost:59280/__cypress/runner/cypress_runner.js:118349:66)\n    at Context.then (http://localhost:59280/__cypress/runner/cypress_runner.js:118600:21)","flaky":false,"newFailed":false,"newBroken":false,"newPassed":false,"retriesCount":0,"retriesStatusChange":false,"beforeStages":[],"testStage":{"status":"failed","statusMessage":"expected 200 to equal 204","statusTrace":"AssertionError: expected 200 to equal 204\n    at captureUserInvocationStack (http://localhost:59280/__cypress/runner/cypress_runner.js:138885:94)\n    at Proxy.<anonymous> (http://localhost:59280/__cypress/runner/cypress_runner.js:138913:9)\n    at Proxy.assertEqual (http://localhost:59280/__cypress/runner/cypress_runner.js:79842:12)\n    at Proxy.methodWrapper (http://localhost:59280/__cypress/runner/cypress_runner.js:77688:25)\n    at Context.eval (webpack:///./cypress/e2e/test/DELETE/deleteUser.cy.js:15:28)\n    at getRet (http://localhost:59280/__cypress/runner/cypress_runner.js:118338:20)\n    at tryCatcher (http://localhost:59280/__cypress/runner/cypress_runner.js:1777:23)\n    at Promise.attempt.Promise.try (http://localhost:59280/__cypress/runner/cypress_runner.js:4285:29)\n    at Context.thenFn (http://localhost:59280/__cypress/runner/cypress_runner.js:118349:66)\n    at Context.then (http://localhost:59280/__cypress/runner/cypress_runner.js:118600:21)","steps":[{"name":"request GET --- https://reqres.in/api/users","time":{"start":1740850244514,"stop":1740850244541,"duration":27},"status":"passed","steps":[],"attachments":[],"parameters":[{"name":"Request","value":"{\"Request Body\":null,\"Request Headers\":{\"Connection\":\"keep-alive\",\"user-agent\":\"Mozilla/5.0 (Windows NT 10.0; Win64; x64) AppleW..."},{"name":"Yielded","value":"{\"status\":200,\"duration\":23,\"body\":{\"page\":1,\"per_page\":6,\"total\":12,\"total_pages\":2,\"data\":[null,null,null,null,null,null],\"sup..."}],"shouldDisplayMessage":false,"attachmentsCount":0,"hasContent":true,"attachmentStep":false,"stepsCount":0},{"name":"assert expected 200 to equal 204","time":{"start":1740850244543,"stop":1740850244543,"duration":0},"status":"failed","statusMessage":"expected 200 to equal 204","statusTrace":"AssertionError: expected 200 to equal 204\n    at captureUserInvocationStack (http://localhost:59280/__cypress/runner/cypress_runner.js:138885:94)\n    at Proxy.<anonymous> (http://localhost:59280/__cypress/runner/cypress_runner.js:138913:9)\n    at Proxy.assertEqual (http://localhost:59280/__cypress/runner/cypress_runner.js:79842:12)\n    at Proxy.methodWrapper (http://localhost:59280/__cypress/runner/cypress_runner.js:77688:25)\n    at Context.eval (webpack:///./cypress/e2e/test/DELETE/deleteUser.cy.js:15:28)\n    at getRet (http://localhost:59280/__cypress/runner/cypress_runner.js:118338:20)\n    at tryCatcher (http://localhost:59280/__cypress/runner/cypress_runner.js:1777:23)\n    at Promise.attempt.Promise.try (http://localhost:59280/__cypress/runner/cypress_runner.js:4285:29)\n    at Context.thenFn (http://localhost:59280/__cypress/runner/cypress_runner.js:118349:66)\n    at Context.then (http://localhost:59280/__cypress/runner/cypress_runner.js:118600:21)","steps":[],"attachments":[],"parameters":[{"name":"actual","value":"200"},{"name":"expected","value":"204"}],"shouldDisplayMessage":true,"attachmentsCount":0,"hasContent":true,"attachmentStep":false,"stepsCount":0}],"attachments":[{"uid":"bcae00660920bccb","name":"Deletes a User -- Validates response status code on trying to delete user without id (failed).png","source":"bcae00660920bccb.png","type":"image/png","size":36798}],"parameters":[],"shouldDisplayMessage":false,"attachmentsCount":1,"hasContent":true,"attachmentStep":false,"stepsCount":2},"afterStages":[],"labels":[{"name":"language","value":"javascript"},{"name":"framework","value":"cypress"},{"name":"parentSuite","value":"Deletes a User"},{"name":"host","value":"DESKTOP-K3V0BAT"},{"name":"thread","value":"pid-17428-worker-main"},{"name":"package","value":"cypress.e2e.test.DELETE.deleteUser.cy.js"},{"name":"resultFormat","value":"allure2"}],"parameters":[],"links":[],"hidden":false,"retry":false,"extra":{"severity":"normal","retries":[],"categories":[{"name":"Product defects","matchedStatuses":[],"flaky":false}],"tags":[]},"source":"4db03b802ac034b0.json","parameterValues":[]}