{"uid":"cf3e909b33a8d919","name":"Validates page number on request success","fullName":"cypress/e2e/test/GET/getUsersPage.cy.js#List Users Validates page number on request success","historyId":"a98b57dd760ff3185ce5800c0930b6b3:d41d8cd98f00b204e9800998ecf8427e","time":{"start":1740850249294,"stop":1740850249330,"duration":36},"status":"passed","flaky":false,"newFailed":false,"newBroken":false,"newPassed":false,"retriesCount":0,"retriesStatusChange":false,"beforeStages":[],"testStage":{"status":"passed","steps":[{"name":"request GET --- https://reqres.in/api/users?page=2","time":{"start":1740850249313,"stop":1740850249336,"duration":23},"status":"passed","steps":[],"attachments":[],"parameters":[{"name":"Request","value":"{\"Request Body\":null,\"Request Headers\":{\"Connection\":\"keep-alive\",\"user-agent\":\"Mozilla/5.0 (Windows NT 10.0; Win64; x64) AppleW..."},{"name":"Yielded","value":"{\"status\":200,\"duration\":19,\"body\":{\"page\":2,\"per_page\":6,\"total\":12,\"total_pages\":2,\"data\":[null,null,null,null,null,null],\"sup..."}],"shouldDisplayMessage":false,"attachmentsCount":0,"hasContent":true,"attachmentStep":false,"stepsCount":0},{"name":"assert expected 2 to equal 2","time":{"start":1740850249337,"stop":1740850249330,"duration":-7},"status":"passed","steps":[],"attachments":[],"parameters":[{"name":"actual","value":"2"},{"name":"expected","value":"2"}],"shouldDisplayMessage":false,"attachmentsCount":0,"hasContent":true,"attachmentStep":false,"stepsCount":0}],"attachments":[],"parameters":[],"shouldDisplayMessage":false,"attachmentsCount":0,"hasContent":true,"attachmentStep":false,"stepsCount":2},"afterStages":[],"labels":[{"name":"language","value":"javascript"},{"name":"framework","value":"cypress"},{"name":"parentSuite","value":"List Users"},{"name":"host","value":"DESKTOP-K3V0BAT"},{"name":"thread","value":"pid-17428-worker-main"},{"name":"package","value":"cypress.e2e.test.GET.getUsersPage.cy.js"},{"name":"resultFormat","value":"allure2"}],"parameters":[],"links":[],"hidden":false,"retry":false,"extra":{"severity":"normal","retries":[],"categories":[],"tags":[]},"source":"cf3e909b33a8d919.json","parameterValues":[]}