{"uid":"df5975c99bdddeef","name":"Validates response structure on request success","fullName":"cypress/e2e/test/GET/getUsersPage.cy.js#List Users Validates response structure on request success","historyId":"6401b0ddd17c2f739875aedb82ec5289:d41d8cd98f00b204e9800998ecf8427e","time":{"start":1740850249359,"stop":1740850249433,"duration":74},"status":"passed","flaky":false,"newFailed":false,"newBroken":false,"newPassed":false,"retriesCount":0,"retriesStatusChange":false,"beforeStages":[],"testStage":{"status":"passed","steps":[{"name":"request GET --- https://reqres.in/api/users?page=2","time":{"start":1740850249378,"stop":1740850249402,"duration":24},"status":"passed","steps":[],"attachments":[],"parameters":[{"name":"Request","value":"{\"Request Body\":null,\"Request Headers\":{\"Connection\":\"keep-alive\",\"user-agent\":\"Mozilla/5.0 (Windows NT 10.0; Win64; x64) AppleW..."},{"name":"Yielded","value":"{\"status\":200,\"duration\":20,\"body\":{\"page\":2,\"per_page\":6,\"total\":12,\"total_pages\":2,\"data\":[null,null,null,null,null,null],\"sup..."}],"shouldDisplayMessage":false,"attachmentsCount":0,"hasContent":true,"attachmentStep":false,"stepsCount":0},{"name":"assert expected 200 to equal 200","time":{"start":1740850249403,"stop":1740850249403,"duration":0},"status":"passed","steps":[],"attachments":[],"parameters":[{"name":"actual","value":"200"},{"name":"expected","value":"200"}],"shouldDisplayMessage":false,"attachmentsCount":0,"hasContent":true,"attachmentStep":false,"stepsCount":0},{"name":"assert Contrato da API inválido!: expected true to be true","time":{"start":1740850249435,"stop":1740850249433,"duration":-2},"status":"passed","steps":[],"attachments":[],"parameters":[{"name":"actual","value":"true"},{"name":"expected","value":"true"}],"shouldDisplayMessage":false,"attachmentsCount":0,"hasContent":true,"attachmentStep":false,"stepsCount":0}],"attachments":[],"parameters":[],"shouldDisplayMessage":false,"attachmentsCount":0,"hasContent":true,"attachmentStep":false,"stepsCount":3},"afterStages":[],"labels":[{"name":"language","value":"javascript"},{"name":"framework","value":"cypress"},{"name":"parentSuite","value":"List Users"},{"name":"host","value":"DESKTOP-K3V0BAT"},{"name":"thread","value":"pid-17428-worker-main"},{"name":"package","value":"cypress.e2e.test.GET.getUsersPage.cy.js"},{"name":"resultFormat","value":"allure2"}],"parameters":[],"links":[],"hidden":false,"retry":false,"extra":{"severity":"normal","retries":[],"categories":[],"tags":[]},"source":"df5975c99bdddeef.json","parameterValues":[]}